…
```r
# Promedio de miembros en el hogar por departamento, área y sexo del jefe del hogar
jefe %>% group_by(depto,area,s02a_02) %>% summarise(mean(miembros))
```

```
## `summarise()` regrouping output by 'depto', 'area' (override with `.groups` argument)
```

```
## # A tibble: 36 x 4
## # Groups:   depto, area [18]
##    depto      area   s02a_02  `mean(miembros)`
##    <fct>      <fct>  <fct>               <dbl>
##  1 Chuquisaca Urbana 1.Hombre             3.58
##  2 Chuquisaca Urbana 2.Mujer              2.64
##  3 Chuquisaca Rural  1.Hombre             3.92
##  4 Chuquisaca Rural  2.Mujer              2.65
##  5 La Paz     Urbana 1.Hombre             3.67
##  6 La Paz     Urbana 2.Mujer              2.88
##  7 La Paz     Rural  1.Hombre             3.26
##  8 La Paz     Rural  2.Mujer              2.52
##  9 Cochabamba Urbana 1.Hombre             3.60
## 10 Cochabamba Urbana 2.Mujer              2.89
## # ... with 26 more rows
```
…
